\comment processing action file ../actions
\setup-begin
\resolution 432
\page-length 4752
\point-size 10
\space-size 20
\spacing 72
\line-spacing 1
\offset 432
\line-length 2808
\indent 0
\title-length 2808
\hyphenate 1
\adjust-full
\nounderline
\font R
\page-number 0
\setup-end
\temp-indent 0
\reset-tabs
\comment processing input file mac5
This is the macro named xx.
\break
This is the macro named yy.
\break
