\comment processing action file ../actions
\setup-begin
\resolution 432
\page-length 4752
\point-size 10
\space-size 20
\spacing 72
\line-spacing 1
\offset 432
\line-length 2808
\indent 0
\title-length 2808
\hyphenate 1
\adjust-full
\nounderline
\font R
\page-number 0
\setup-end
\temp-indent 0
\reset-tabs
\comment processing input file macstring1
\nofill
Macro name; this should print "outer": outer
\break
Outer name: outer
\break
Outer arg count: 5
\break
Outer arguments: "a" "b" "c" "d" "e"
\break
Inner macro is shifting arguments
\break
Outer name: outer
\break
Outer arg count: 4
\break
Outer arguments: "b" "c" "d" "e"
\break
